﻿{
  "NoAuthActions": [
    "/api/user/login",
    "/api/user/GenerateForgetPasswordToken",
    "/api/user/ForgetPassword",
    "/api/user/ChangePassword",
    "/api/user/IsPasswordPinExist",
    "/api/user/GetPhoneVerficationToken",
    "/api/user/IsPhoneVerificationTokenValid",
    "/api/user/ConfirmPhone",
    "/api/user/Add",
    "/healthcheck",
    "/customer/register",
    "/LKP_Category/GetAllActive",
    "/LKP_Item/GetActiveByCategoryId",
    "/Allowable_Items_Cutting/GetByItemId",
    "/Allowable_Items_Quatity/GetByItemId",
    "/paci/GetLocationByPaci",
    "/paci/GetAllGovernorates",
    "/paci/GetAreas",
    "/paci/GetBlocks",
    "/paci/GetStreets",
    "/makani/GetMakaniInfoFromCoord",
    "/makani/GetMakaniInfoFromNumber",
    "/Country/getall",
    "/UAEPayment/Receipt",
    "/customer/login",
    "/KWPayment/Success",
    "/KWPayment/Error",
    "/language/getall",
    "/Setting/GetSetting",
    "/Notification/send",
    "/sms/senduae"
  ],
  "NoAuthFileExtensions": [
    "jpg",
    "jpeg",
    "doc",
    "docx",
    "pdf",
    "png",
    "html",
    "css",
    "js",
    "xls",
    "xlsx",
    "txt"
  ]
}